^C:\USERS\USUARIO\DOCUMENTS\URL\1819\GRAPHICS\GRAPHICS_1\SRC\GLFUNCTIONS.CPP|C:\USERS\USUARIO\DOCUMENTS\URL\1819\GRAPHICS\GRAPHICS_1\SRC\MAIN.CPP|C:\USERS\USUARIO\DOCUMENTS\URL\1819\GRAPHICS\GRAPHICS_1\SRC\SHADER.CPP
C:\USERS\USUARIO\DOCUMENTS\URL\1819\GRAPHICS\GRAPHICS_1\VISUAL_STUDIO\X64\DEBUG\VC141.PDB
C:\USERS\USUARIO\DOCUMENTS\URL\1819\GRAPHICS\GRAPHICS_1\VISUAL_STUDIO\X64\DEBUG\VC141.IDB
C:\USERS\USUARIO\DOCUMENTS\URL\1819\GRAPHICS\GRAPHICS_1\VISUAL_STUDIO\X64\DEBUG\SHADER.OBJ
C:\USERS\USUARIO\DOCUMENTS\URL\1819\GRAPHICS\GRAPHICS_1\VISUAL_STUDIO\X64\DEBUG\MAIN.OBJ
C:\USERS\USUARIO\DOCUMENTS\URL\1819\GRAPHICS\GRAPHICS_1\VISUAL_STUDIO\X64\DEBUG\GLFUNCTIONS.OBJ
^C:\USERS\USUARIO\DOCUMENTS\URL\1819\GRAPHICS\GRAPHICS_1\SRC\GLFUNCTIONS.CPP
C:\USERS\USUARIO\DOCUMENTS\URL\1819\GRAPHICS\GRAPHICS_1\VISUAL_STUDIO\X64\DEBUG\VC141.PDB
^C:\USERS\USUARIO\DOCUMENTS\URL\1819\GRAPHICS\GRAPHICS_1\SRC\SHADER.CPP
C:\USERS\USUARIO\DOCUMENTS\URL\1819\GRAPHICS\GRAPHICS_1\VISUAL_STUDIO\X64\DEBUG\VC141.PDB
^C:\USERS\USUARIO\DOCUMENTS\URL\1819\GRAPHICS\GRAPHICS_1\SRC\MAIN.CPP
C:\USERS\USUARIO\DOCUMENTS\URL\1819\GRAPHICS\GRAPHICS_1\VISUAL_STUDIO\X64\DEBUG\VC141.PDB
C:\USERS\USUARIO\DOCUMENTS\URL\1819\GRAPHICS\GRAPHICS_1\VISUAL_STUDIO\X64\DEBUG\VC141.IDB
C:\USERS\USUARIO\DOCUMENTS\URL\1819\GRAPHICS\GRAPHICS_1\VISUAL_STUDIO\X64\DEBUG\MAIN.OBJ
^C:\USERS\USUARIO\DOCUMENTS\URL\1819\GRAPHICS\GRAPHICS_1\SRC\IMAGELOADER.CPP
C:\USERS\USUARIO\DOCUMENTS\URL\1819\GRAPHICS\GRAPHICS_1\VISUAL_STUDIO\X64\DEBUG\VC141.PDB
C:\USERS\USUARIO\DOCUMENTS\URL\1819\GRAPHICS\GRAPHICS_1\VISUAL_STUDIO\X64\DEBUG\VC141.IDB
C:\USERS\USUARIO\DOCUMENTS\URL\1819\GRAPHICS\GRAPHICS_1\VISUAL_STUDIO\X64\DEBUG\IMAGELOADER.OBJ
^C:\USERS\USUARIO\DOCUMENTS\SOURCE\REPOS\GRAPHICS3D_SOLAR\GRAPHICS_1\SRC\GLFUNCTIONS.CPP|C:\USERS\USUARIO\DOCUMENTS\SOURCE\REPOS\GRAPHICS3D_SOLAR\GRAPHICS_1\SRC\IMAGELOADER.CPP|C:\USERS\USUARIO\DOCUMENTS\SOURCE\REPOS\GRAPHICS3D_SOLAR\GRAPHICS_1\SRC\MAIN.CPP|C:\USERS\USUARIO\DOCUMENTS\SOURCE\REPOS\GRAPHICS3D_SOLAR\GRAPHICS_1\SRC\SHADER.CPP
C:\USERS\USUARIO\DOCUMENTS\SOURCE\REPOS\GRAPHICS3D_SOLAR\GRAPHICS_1\VISUAL_STUDIO\X64\DEBUG\VC141.PDB
C:\USERS\USUARIO\DOCUMENTS\SOURCE\REPOS\GRAPHICS3D_SOLAR\GRAPHICS_1\VISUAL_STUDIO\X64\DEBUG\VC141.IDB
C:\USERS\USUARIO\DOCUMENTS\SOURCE\REPOS\GRAPHICS3D_SOLAR\GRAPHICS_1\VISUAL_STUDIO\X64\DEBUG\SHADER.OBJ
C:\USERS\USUARIO\DOCUMENTS\SOURCE\REPOS\GRAPHICS3D_SOLAR\GRAPHICS_1\VISUAL_STUDIO\X64\DEBUG\MAIN.OBJ
C:\USERS\USUARIO\DOCUMENTS\SOURCE\REPOS\GRAPHICS3D_SOLAR\GRAPHICS_1\VISUAL_STUDIO\X64\DEBUG\IMAGELOADER.OBJ
C:\USERS\USUARIO\DOCUMENTS\SOURCE\REPOS\GRAPHICS3D_SOLAR\GRAPHICS_1\VISUAL_STUDIO\X64\DEBUG\GLFUNCTIONS.OBJ
^C:\USERS\USUARIO\DOCUMENTS\SOURCE\REPOS\GRAPHICS3D_SOLAR\GRAPHICS_1\SRC\GLFUNCTIONS.CPP
C:\USERS\USUARIO\DOCUMENTS\SOURCE\REPOS\GRAPHICS3D_SOLAR\GRAPHICS_1\VISUAL_STUDIO\X64\DEBUG\VC141.PDB
^C:\USERS\USUARIO\DOCUMENTS\SOURCE\REPOS\GRAPHICS3D_SOLAR\GRAPHICS_1\SRC\IMAGELOADER.CPP
C:\USERS\USUARIO\DOCUMENTS\SOURCE\REPOS\GRAPHICS3D_SOLAR\GRAPHICS_1\VISUAL_STUDIO\X64\DEBUG\VC141.PDB
^C:\USERS\USUARIO\DOCUMENTS\SOURCE\REPOS\GRAPHICS3D_SOLAR\GRAPHICS_1\SRC\MAIN.CPP
C:\USERS\USUARIO\DOCUMENTS\SOURCE\REPOS\GRAPHICS3D_SOLAR\GRAPHICS_1\VISUAL_STUDIO\X64\DEBUG\VC141.PDB
^C:\USERS\USUARIO\DOCUMENTS\SOURCE\REPOS\GRAPHICS3D_SOLAR\GRAPHICS_1\SRC\SHADER.CPP
C:\USERS\USUARIO\DOCUMENTS\SOURCE\REPOS\GRAPHICS3D_SOLAR\GRAPHICS_1\VISUAL_STUDIO\X64\DEBUG\VC141.PDB
